---
http_interactions:
- request:
    method: get
    uri: http://smc-ohana-api-test.herokuapp.com/api/search?action=index&controller=locations
    body:
      encoding: US-ASCII
      string: ''
    headers:
      Accept:
      - application/vnd.ohanapi-v1+json
      User-Agent:
      - Ohanakapa Ruby Gem 1.1.3
      Accept-Encoding:
      - gzip;q=1.0,deflate;q=0.6,identity;q=0.3
  response:
    status:
      code: 200
      message: OK
    headers:
      Server:
      - Cowboy
      Connection:
      - keep-alive
      X-Frame-Options:
      - SAMEORIGIN
      X-Xss-Protection:
      - 1; mode=block
      X-Content-Type-Options:
      - nosniff
      Etag:
      - W/"322ceeac9f860a2d374714ac9bfb1763"
      Link:
      - <http://smc-ohana-api-test.herokuapp.com/api/search?page=343>; rel="last",
        <http://smc-ohana-api-test.herokuapp.com/api/search?page=2>; rel="next"
      X-Total-Count:
      - '343'
      Content-Type:
      - application/json; charset=utf-8
      Date:
      - Sat, 07 Sep 2019 20:00:07 GMT
      Cache-Control:
      - max-age=0, public
      Vary:
      - Origin
      X-Request-Id:
      - ff1bdea6-b38a-48ee-88d5-905d1c82c454
      X-Runtime:
      - '0.021720'
      Transfer-Encoding:
      - chunked
      Via:
      - 1.1 vegur
    body:
      encoding: UTF-8
      string: '[{"id":1384,"active":true,"admin_emails":[],"alternate_name":null,"coordinates":[-122.2586432,37.5304228],"description":"Provides
        general reading materials, including large-type books, videos, music cassettes
        and CDs, and books on tape. Offers children''s programs and a Summer Reading
        Club. Meeting room is available to nonprofit groups. Participates in the Peninsula
        Library System.","kind":"Libraries","latitude":37.5304228,"longitude":-122.2586432,"name":"Redwood
        Shores Branch","short_desc":"Provides general reading materials and reference
        services.","slug":"redwood-shores-branch","updated_at":"2019-06-04T06:49:31.999-07:00","website":null,"url":"http://smc-ohana-api-test.herokuapp.com/api/locations/redwood-shores-branch","address":{"id":1124,"address_1":"399
        Marine Parkway.","address_2":null,"city":"Redwood City","state_province":"CA","postal_code":"94065"},"organization":{"id":1299,"accreditations":[],"alternate_name":null,"date_incorporated":null,"description":null,"email":null,"funding_sources":[],"licenses":[],"name":"Redwood
        City Public Library","website":null,"slug":"redwood-city-public-library","url":"http://smc-ohana-api-test.herokuapp.com/api/organizations/redwood-city-public-library","locations_url":"http://smc-ohana-api-test.herokuapp.com/api/organizations/redwood-city-public-library/locations"},"phones":[{"id":1897,"department":null,"extension":null,"number":"650
        780-5740","number_type":null,"vanity_number":null}]}]'
    http_version: 
  recorded_at: Sat, 07 Sep 2019 20:00:07 GMT
- request:
    method: get
    uri: http://smc-ohana-api-test.herokuapp.com/api/search?action=index&controller=locations&keyword=Samaritan%20House&location=&org_name=&utf8=%E2%9C%93
    body:
      encoding: US-ASCII
      string: ''
    headers:
      Accept:
      - application/vnd.ohanapi-v1+json
      User-Agent:
      - Ohanakapa Ruby Gem 1.1.3
      Accept-Encoding:
      - gzip;q=1.0,deflate;q=0.6,identity;q=0.3
  response:
    status:
      code: 200
      message: OK
    headers:
      Server:
      - Cowboy
      Connection:
      - keep-alive
      X-Frame-Options:
      - SAMEORIGIN
      X-Xss-Protection:
      - 1; mode=block
      X-Content-Type-Options:
      - nosniff
      Etag:
      - W/"0a290d93464fee6b3816991bde95bbd6"
      Link:
      - <http://smc-ohana-api-test.herokuapp.com/api/search?keyword=Samaritan+House&org_name=&page=3>;
        rel="last", <http://smc-ohana-api-test.herokuapp.com/api/search?keyword=Samaritan+House&org_name=&page=2>;
        rel="next"
      X-Total-Count:
      - '3'
      Content-Type:
      - application/json; charset=utf-8
      Date:
      - Sat, 07 Sep 2019 20:00:09 GMT
      Cache-Control:
      - max-age=0, public
      Vary:
      - Origin
      X-Request-Id:
      - f50e84dc-bfee-41be-b60a-b13f192135bf
      X-Runtime:
      - '0.040956'
      Transfer-Encoding:
      - chunked
      Via:
      - 1.1 vegur
    body:
      encoding: UTF-8
      string: '[{"id":1389,"active":true,"admin_emails":[],"alternate_name":null,"coordinates":[-122.207057,37.468678],"description":"Primary
        and specialty medical and dental services to uninsured, low-income residents.
        Who is Treated? Patients of our clinics are the working poor. They tend to
        earn just enough income to be ineligible for Medi-Cal coverage, yet do not
        receive health insurance through their employers and cannot afford to pay
        for “out-of-pocket” health insurance. Often these residents are forced to
        seek treatment at local emergency rooms and become saddled with medical bills
        that they are unable to pay. Samaritan House’s Free Medical Clinics fill this
        gap in healthcare access for the uninsured and save emergency room resources
        for emergencies. Professional Medical \u0026 Dental Volunteers Thanks to its
        innovative volunteer-based model of service, Samaritan House’s clinics are
        able to treat such a large number of patients with a very small paid staff.
        Almost all of the medical and dental doctors and assistants are volunteering
        their time free of charge. These individuals, either retired or currently
        practicing medicine and dentistry, want to serve their community in their
        limited spare time.","kind":"Human Services","latitude":37.468678,"longitude":-122.207057,"name":"Redwood
        City Free Medical Clinic","short_desc":"Provides free medical care to those
        in need.","slug":"redwood-city-free-medical-clinic","updated_at":"2019-06-04T06:49:32.122-07:00","website":null,"url":"http://smc-ohana-api-test.herokuapp.com/api/locations/redwood-city-free-medical-clinic","address":{"id":1129,"address_1":"114
        Fifth Avenue","address_2":null,"city":"Redwood City","state_province":"CA","postal_code":"94063"},"organization":{"id":1301,"accreditations":[],"alternate_name":null,"date_incorporated":null,"description":null,"email":null,"funding_sources":[],"licenses":[],"name":"Samaritan
        House","website":null,"slug":"samaritan-house-57cf15eb-09cd-498e-a0e8-b2f154a07bec","url":"http://smc-ohana-api-test.herokuapp.com/api/organizations/samaritan-house-57cf15eb-09cd-498e-a0e8-b2f154a07bec","locations_url":"http://smc-ohana-api-test.herokuapp.com/api/organizations/samaritan-house-57cf15eb-09cd-498e-a0e8-b2f154a07bec/locations"},"phones":[{"id":1903,"department":null,"extension":null,"number":"650
        839-1447","number_type":null,"vanity_number":null}]}]'
    http_version: 
  recorded_at: Sat, 07 Sep 2019 20:00:09 GMT
- request:
    method: get
    uri: http://smc-ohana-api-test.herokuapp.com/api/search?action=index&controller=locations&org_name=Samaritan%20House
    body:
      encoding: US-ASCII
      string: ''
    headers:
      Accept:
      - application/vnd.ohanapi-v1+json
      User-Agent:
      - Ohanakapa Ruby Gem 1.1.3
      Accept-Encoding:
      - gzip;q=1.0,deflate;q=0.6,identity;q=0.3
  response:
    status:
      code: 200
      message: OK
    headers:
      Server:
      - Cowboy
      Connection:
      - keep-alive
      X-Frame-Options:
      - SAMEORIGIN
      X-Xss-Protection:
      - 1; mode=block
      X-Content-Type-Options:
      - nosniff
      Etag:
      - W/"c9b5fc72a9c722e6537d948ff03a9b02"
      Link:
      - <http://smc-ohana-api-test.herokuapp.com/api/search?org_name=Samaritan+House&page=2>;
        rel="last", <http://smc-ohana-api-test.herokuapp.com/api/search?org_name=Samaritan+House&page=2>;
        rel="next"
      X-Total-Count:
      - '2'
      Content-Type:
      - application/json; charset=utf-8
      Date:
      - Sat, 07 Sep 2019 20:00:10 GMT
      Cache-Control:
      - max-age=0, public
      Vary:
      - Origin
      X-Request-Id:
      - 80825138-f988-44f1-8d03-03fa7ff9f22c
      X-Runtime:
      - '0.115710'
      Transfer-Encoding:
      - chunked
      Via:
      - 1.1 vegur
    body:
      encoding: UTF-8
      string: '[{"id":1390,"active":true,"admin_emails":[],"alternate_name":null,"coordinates":[-122.2931271,37.5326926],"description":"Provides
        free primary and specialty medical and dental services to uninsured, low-income
        residents. Who is Treated? Patients of our clinics are the working poor. They
        tend to earn just enough income to be ineligible for Medi-Cal coverage, yet
        do not receive health insurance through their employers and cannot afford
        to pay for “out-of-pocket” health insurance. Often these residents are forced
        to seek treatment at local emergency rooms and become saddled with medical
        bills that they are unable to pay. Samaritan House’s Free Medical Clinics
        fill this gap in healthcare access for the uninsured and save emergency room
        resources for emergencies. Professional Medical \u0026 Dental Volunteers Thanks
        to its innovative volunteer-based model of service, Samaritan House’s clinics
        are able to treat such a large number of patients with a very small paid staff.
        Almost all of the medical and dental doctors and assistants are volunteering
        their time free of charge. These individuals, either retired or currently
        practicing medicine and dentistry, want to serve their community in their
        limited spare time.","kind":"Human Services","latitude":37.5326926,"longitude":-122.2931271,"name":"San
        Mateo Free Medical Clinic","short_desc":"Provides free medical and dental
        care to those in need. Offers basic medical care for adults.","slug":"san-mateo-free-medical-clinic","updated_at":"2019-06-04T06:49:32.142-07:00","website":null,"url":"http://smc-ohana-api-test.herokuapp.com/api/locations/san-mateo-free-medical-clinic","address":{"id":1130,"address_1":"19
        West 39th Avenue","address_2":null,"city":"San Mateo","state_province":"CA","postal_code":"94403"},"organization":{"id":1301,"accreditations":[],"alternate_name":null,"date_incorporated":null,"description":null,"email":null,"funding_sources":[],"licenses":[],"name":"Samaritan
        House","website":null,"slug":"samaritan-house-57cf15eb-09cd-498e-a0e8-b2f154a07bec","url":"http://smc-ohana-api-test.herokuapp.com/api/organizations/samaritan-house-57cf15eb-09cd-498e-a0e8-b2f154a07bec","locations_url":"http://smc-ohana-api-test.herokuapp.com/api/organizations/samaritan-house-57cf15eb-09cd-498e-a0e8-b2f154a07bec/locations"},"phones":[{"id":1904,"department":null,"extension":null,"number":"650
        578-0400","number_type":null,"vanity_number":null}]}]'
    http_version: 
  recorded_at: Sat, 07 Sep 2019 20:00:10 GMT
recorded_with: VCR 5.0.0
